Extract period (seasonal) averages from fitted GAM — anlz_avgseason • wqtrends
…
# data to model
tomod <- rawdat %>%
  filter(station %in% 34) %>%
  filter(param %in% 'chl')

mod <- anlz_gam(tomod, trans = 'log10')
anlz_avgseason(mod, doystr = 90, doyend = 180)

#> # A tibble: 29 x 6
#>       yr   met     se bt_lwr bt_upr bt_met
#>    <dbl> <dbl>  <dbl>  <dbl>  <dbl>  <dbl>
#>  1  1991 0.115 0.533   0.132  16.2    1.46
#>  2  1992 0.684 0.0658  4.02    7.29   5.41
#>  3  1993 0.689 0.0968  3.54    8.48   5.48
#>  4  1994 0.790 0.0865  4.68   10.2    6.91
#>  5  1995 0.728 0.0807  4.16    8.63   5.99
#>  6  1996 1.20  0.0914 11.7    26.8   17.7 
#>  7  1997 0.835 0.0904  5.10   11.5    7.68
#>  8  1998 1.02  0.0798  8.27   17.0   11.9 
#>  9  1999 1.05  0.154   6.26   25.1   12.5 
#> 10  2000 0.811 0.0984  4.65   11.3    7.25
#> # … with 19 more rows
…
