Get prediction matrix for a fitted GAM — anlz_prdmatrix • wqtrends
…
    Used internally by anlz_avgseason and anlz_metseason, not to be used by itself

    Examples

library(dplyr)

# data to model
tomod <- rawdat %>%
  filter(station %in% 34) %>%
  filter(param %in% 'chl')

mod <- anlz_gam(tomod, trans = 'log10')
anlz_prdmatrix(mod, doystr = 90, doyend = 180)

#> # A tibble: 2,639 x 4
#>    date          yr   doy cont_year
#>    <date>     <dbl> <dbl>     <dbl>
#>  1 1991-03-31  1991    90     1991.
#>  2 1991-04-01  1991    91     1991.
#>  3 1991-04-02  1991    92     1991.
#>  4 1991-04-03  1991    93     1991.
#>  5 1991-04-04  1991    94     1991.
#>  6 1991-04-05  1991    95     1991.
#>  7 1991-04-06  1991    96     1991.
#>  8 1991-04-07  1991    97     1991.
#>  9 1991-04-08  1991    98     1991.
#> 10 1991-04-09  1991    99     1991.
#> # … with 2,629 more rows
…
