Back-transform response variable — anlz_backtrans • wqtrends
…
trans <- 'boxcox'
mods <- list(
  gam0 = anlz_gam(tomod, mod = 'gam0', trans = trans),
  gam1 = anlz_gam(tomod, mod = 'gam1', trans = trans), 
  gam2 = anlz_gam(tomod, mod = 'gam2', trans = trans)
  )
dat <- anlz_prd(mods = mods)
anlz_backtrans(dat)

#> # A tibble: 3,000 x 9
#>    model cont_year date       mo      doy    yr annvalue value  trans
#>    <chr>     <dbl> <date>     <ord> <dbl> <dbl>    <dbl> <dbl>  <dbl>
#>  1 gam0      1990. 1990-01-18 Jan      18  1990     4.77  2.42 -0.240
#>  2 gam0      1990. 1990-01-28 Jan      28  1990     4.77  2.60 -0.240
#>  3 gam0      1990. 1990-02-08 Feb      39  1990     4.78  3.04 -0.240
#>  4 gam0      1990. 1990-02-19 Feb      50  1990     4.78  4.01 -0.240
#>  5 gam0      1990. 1990-03-02 Mar      61  1990     4.78  5.75 -0.240
#>  6 gam0      1990. 1990-03-13 Mar      72  1990     4.78  8.16 -0.240
#>  7 gam0      1990. 1990-03-24 Mar      83  1990     4.78 10.1  -0.240
#>  8 gam0      1990. 1990-04-04 Apr      94  1990     4.79 10.4  -0.240
#>  9 gam0      1990. 1990-04-15 Apr     105  1990     4.79  9.12 -0.240
#> 10 gam0      1990. 1990-04-26 Apr     116  1990     4.79  7.26 -0.240
#> # … with 2,990 more rows
…
