Get predicted data from fitted GAMs across period of observation — anlz_prd • wqtrends
…
  filter(station %in% 32) %>%
  filter(param %in% 'chl')
if (FALSE) {
anlz_prd(tomod, trans = 'log10')
}
# use previously fitted list of models
trans <- 'log10'
mods <- list(
  gam0 = anlz_gam(tomod, mod = 'gam0', trans = trans),
  gam1 = anlz_gam(tomod, mod = 'gam1', trans = trans), 
  gam2 = anlz_gam(tomod, mod = 'gam2', trans = trans)
  )
anlz_prd(mods = mods)

#> # A tibble: 3,000 x 9
#>    model cont_year date       mo      doy    yr annvalue value trans
#>    <chr>     <dbl> <date>     <ord> <dbl> <dbl>    <dbl> <dbl> <chr>
#>  1 gam0      1990. 1990-01-18 Jan      18  1990    0.733 0.405 log10
#>  2 gam0      1990. 1990-01-28 Jan      28  1990    0.733 0.444 log10
#>  3 gam0      1990. 1990-02-08 Feb      39  1990    0.733 0.530 log10
#>  4 gam0      1990. 1990-02-19 Feb      50  1990    0.734 0.672 log10
#>  5 gam0      1990. 1990-03-02 Mar      61  1990    0.734 0.843 log10
#>  6 gam0      1990. 1990-03-13 Mar      72  1990    0.734 0.994 log10
#>  7 gam0      1990. 1990-03-24 Mar      83  1990    0.734 1.07  log10
#>  8 gam0      1990. 1990-04-04 Apr      94  1990    0.734 1.07  log10
#>  9 gam0      1990. 1990-04-15 Apr     105  1990    0.734 1.01  log10
#> 10 gam0      1990. 1990-04-26 Apr     116  1990    0.734 0.912 log10
#> # … with 2,990 more rows
…
