Extract period (seasonal) averages from fitted GAM — anlz_avgseason • wqtrends
…
  gam1 = anlz_gam(tomod, mod = 'gam1', trans = trans),
  gam2 = anlz_gam(tomod, mod = 'gam2', trans = trans)
  )
#> Registered S3 method overwritten by 'xts':
#>   method     from
#>   as.zoo.xts zoo 
#> Registered S3 method overwritten by 'quantmod':
#>   method            from
#>   as.zoo.data.frame zoo 
#> Registered S3 methods overwritten by 'forecast':
#>   method             from    
#>   fitted.fracdiff    fracdiff
#>   residuals.fracdiff fracdiff
anlz_avgseason(mods = mods, doystr = 90, doyend = 180)
#> # A tibble: 84 x 4
#>    model predicted    se    yr
#>    <chr>     <dbl> <dbl> <int>
#>  1 gam0       5.22  1.05  1990
#>  2 gam0       5.31  1.05  1991
#>  3 gam0       5.42  1.05  1992
#>  4 gam0       5.52  1.04  1993
#>  5 gam0       5.63  1.04  1994
#>  6 gam0       5.73  1.04  1995
#>  7 gam0       5.85  1.04  1996
#>  8 gam0       5.96  1.04  1997
#>  9 gam0       6.07  1.04  1998
#> 10 gam0       6.19  1.04  1999
#> # ... with 74 more rows
…
