Back-transform response variable — anlz_backtrans • wqtrends
…
trans <- 'boxcox'
mods <- list(
  gam0 = anlz_gam(tomod, mod = 'gam0', trans = trans),
  gam1 = anlz_gam(tomod, mod = 'gam1', trans = trans),
  gam2 = anlz_gam(tomod, mod = 'gam2', trans = trans)
  )
dat <- anlz_prd(mods = mods)
anlz_backtrans(dat)
#> # A tibble: 3,000 x 8
#>    model dec_time date       mo      doy    yr value  trans
#>    <chr>    <dbl> <date>     <ord> <dbl> <dbl> <dbl>  <dbl>
#>  1 gam0     1990. 1990-01-18 Jan      18  1990  2.42 -0.210
#>  2 gam0     1990. 1990-01-28 Jan      28  1990  2.57 -0.210
#>  3 gam0     1990. 1990-02-07 Feb      38  1990  2.92 -0.210
#>  4 gam0     1990. 1990-02-17 Feb      48  1990  3.67 -0.210
#>  5 gam0     1990. 1990-02-27 Feb      58  1990  4.98 -0.210
#>  6 gam0     1990. 1990-03-09 Mar      68  1990  6.89 -0.210
#>  7 gam0     1990. 1990-03-20 Mar      79  1990  9.11 -0.210
#>  8 gam0     1990. 1990-03-30 Mar      89  1990 10.2  -0.210
#>  9 gam0     1990. 1990-04-09 Apr      99  1990  9.96 -0.210
#> 10 gam0     1990. 1990-04-19 Apr     109  1990  8.48 -0.210
#> # ... with 2,990 more rows
…
