Introduction â€¢ wqtrends
…
Evaluating seasonal changes over time

The anlz_metseason(), anlz_mixmeta(), and show_metseason() functions evaluate seasonal metrics (e.g., mean, max, etc.) between years, including an assessment of the trend for selected years using mixed-effects meta-analysis modelling. These functions require inputs for the seasonal ranges to evaluate (doyend, doystr) and years for assessing the trend in the seasonal averages/metrics (yrstr, yrend).

The anlz_metseason() function estimates the seasonal metrics (including uncertainty as standard error) for results from the GAM fit. The seasonal metric can be any summary function available in R, such as seasonal maxima (max), minima (min), variance (var), or others. The function uses repeated resampling of the GAM model coefficients to simulate multiple time series as an estimate of uncertainty for the summary parameter.

The inputs for anlz_metseason() include the seasonal range as day of year using start (doystr) and end (doyend) days and the metfun and nsim arguments to specify the summary function and number of simulations, respectively. Here we show the estimate for the maximum chlorophyll in each season, using a relatively low number of simulations. Repeating this function will produce similar but slightly different results because the estimates are stochastic. In practice, a large value for nsim should be used to produce accurate results (e.g., nsim = 1e5).

metseason <- anlz_metseason(mod, metfun = max, doystr = 90, doyend = 180, nsim = 100)
metseason

#> # A tibble: 29 x 6
#>       yr   met     se bt_lwr bt_upr bt_met
#>    <dbl> <dbl>  <dbl>  <dbl>  <dbl>  <dbl>
#>  1  1991 0.261 0.461   0.255   16.4   2.04
#>  2  1992 0.825 0.0776  5.28    10.6   7.49
#>  3  1993 1.41  0.100  18.2     45.1  28.7 
#>  4  1994 1.12  0.0932  9.62    22.3  14.6 
#>  5  1995 1.27  0.0860 14.3     31.0  21.0 
#>  6  1996 1.31  0.0864 15.4     33.5  22.7 
#>  7  1997 1.41  0.0987 18.3     44.7  28.6 
#>  8  1998 1.96  0.0966 65.5    157.  101.  
#>  9  1999 1.58  0.165  20.2     89.3  42.5 
#> 10  2000 1.32  0.113  13.9     38.8  23.3 
#> # â€¦ with 19 more rows
…
