…
``` r
metseason <- anlz_metseason(mod, metfun = max, doystr = 90, doyend = 180, nsim = 100)
metseason
```

    #> # A tibble: 29 × 7
    #>       yr   met     se bt_lwr bt_upr bt_met dispersion
    #>    <dbl> <dbl>  <dbl>  <dbl>  <dbl>  <dbl>      <dbl>
    #>  1  1991 0.264 0.426   0.301   14.1   2.06     0.0434
    #>  2  1992 0.825 0.0676  5.52    10.2   7.49     0.0434
    #>  3  1993 1.41  0.102  18.1     45.5  28.7      0.0434
    #>  4  1994 1.12  0.0900  9.76    22.0  14.6      0.0434
    #>  5  1995 1.27  0.0845 14.4     30.8  21.0      0.0434
    #>  6  1996 1.31  0.108  13.9     37.0  22.7      0.0434
    #>  7  1997 1.41  0.0998 18.2     44.9  28.6      0.0434
    #>  8  1998 1.96  0.104  63.3    162.  101.       0.0434
    #>  9  1999 1.58  0.138  22.8     79.4  42.5      0.0434
    #> 10  2000 1.32  0.122  13.4     40.3  23.3      0.0434
    #> # ℹ 19 more rows
…
    #> $mixmet
    #> Call:  mixmeta::mixmeta(formula = met ~ yr, S = S, data = totrnd, random = ~1 | 
    #>     yr, method = "reml")
    #> 
    #> Fixed-effects coefficients:
    #> (Intercept)           yr  
    #>     46.4014      -0.0226  
    #> 
    #> 12 units, 1 outcome, 12 observations, 2 fixed and 1 random-effects parameters
    #>   logLik       AIC       BIC  
    #>   8.6916  -11.3831  -10.4754  
    #> 
    #> 
    #> $metseason
    #> # A tibble: 29 × 7
    #>       yr   met     se bt_lwr bt_upr bt_met dispersion
    #>    <dbl> <dbl>  <dbl>  <dbl>  <dbl>  <dbl>      <dbl>
    #>  1  1991 0.115 0.529   0.134  15.9    1.46     0.0434
    #>  2  1992 0.684 0.0649  4.04    7.26   5.41     0.0434
    #>  3  1993 0.689 0.0956  3.56    8.43   5.48     0.0434
    #>  4  1994 0.790 0.0866  4.68   10.2    6.91     0.0434
    #>  5  1995 0.728 0.0814  4.15    8.65   5.99     0.0434
    #>  6  1996 1.20  0.0922 11.7    26.9   17.7      0.0434
    #>  7  1997 0.835 0.0899  5.12   11.5    7.68     0.0434
    #>  8  1998 1.02  0.0815  8.21   17.1   11.9      0.0434
    #>  9  1999 1.05  0.154   6.26   25.1   12.5      0.0434
    #> 10  2000 0.811 0.0975  4.67   11.3    7.25     0.0434
    #> # ℹ 19 more rows
…
